<?xml version='1.0' encoding='UTF-8'?>
<!-- This file was generated by dvisvgm 2.9.1 -->
<svg version='1.1' xmlns='http://www.w3.org/2000/svg' xmlns:xlink='http://www.w3.org/1999/xlink' width='593.277pt' height='100.127pt' viewBox='106.473 103.921 593.277 100.127'>
<g id='page1'>
<g transform='matrix(0.996264 0 0 0.996264 106.473 103.921)'>
<path d='M 45.2509 55.2509L 55.2509 55.2509L 55.2509 45.2509L 45.2509 45.2509L 45.2509 55.2509Z' fill='none' stroke='#000000' stroke-linecap='round' stroke-linejoin='round' stroke-miterlimit='10.0375' stroke-width='0.501875'/>
</g>
<g transform='matrix(0.996264 0 0 0.996264 106.473 103.921)'>
<path d='M 40.2509 60.2509L 60.2509 60.2509L 60.2509 40.2509L 40.2509 40.2509L 40.2509 60.2509Z' fill='none' stroke='#000000' stroke-linecap='round' stroke-linejoin='round' stroke-miterlimit='10.0375' stroke-width='0.501875'/>
</g>
<g transform='matrix(0.996264 0 0 0.996264 106.473 103.921)'>
<path d='M 35.2509 65.2509L 65.2509 65.2509L 65.2509 35.2509L 35.2509 35.2509L 35.2509 65.2509Z' fill='none' stroke='#000000' stroke-linecap='round' stroke-linejoin='round' stroke-miterlimit='10.0375' stroke-width='0.501875'/>
</g>
<g transform='matrix(0.996264 0 0 0.996264 106.473 103.921)'>
<path d='M 30.2509 70.2509L 70.2509 70.2509L 70.2509 30.2509L 30.2509 30.2509L 30.2509 70.2509Z' fill='none' stroke='#000000' stroke-linecap='round' stroke-linejoin='round' stroke-miterlimit='10.0375' stroke-width='0.501875'/>
</g>
<g transform='matrix(0.996264 0 0 0.996264 106.473 103.921)'>
<path d='M 25.2509 75.2509L 75.2509 75.2509L 75.2509 25.2509L 25.2509 25.2509L 25.2509 75.2509Z' fill='none' stroke='#000000' stroke-linecap='round' stroke-linejoin='round' stroke-miterlimit='10.0375' stroke-width='0.501875'/>
</g>
<g transform='matrix(0.996264 0 0 0.996264 106.473 103.921)'>
<path d='M 20.2509 80.2509L 80.2509 80.2509L 80.2509 20.2509L 20.2509 20.2509L 20.2509 80.2509Z' fill='none' stroke='#000000' stroke-linecap='round' stroke-linejoin='round' stroke-miterlimit='10.0375' stroke-width='0.501875'/>
</g>
<g transform='matrix(0.996264 0 0 0.996264 106.473 103.921)'>
<path d='M 15.2509 85.2509L 85.2509 85.2509L 85.2509 15.2509L 15.2509 15.2509L 15.2509 85.2509Z' fill='none' stroke='#000000' stroke-linecap='round' stroke-linejoin='round' stroke-miterlimit='10.0375' stroke-width='0.501875'/>
</g>
<g transform='matrix(0.996264 0 0 0.996264 106.473 103.921)'>
<path d='M 10.2509 90.2509L 90.2509 90.2509L 90.2509 10.2509L 10.2509 10.2509L 10.2509 90.2509Z' fill='none' stroke='#000000' stroke-linecap='round' stroke-linejoin='round' stroke-miterlimit='10.0375' stroke-width='0.501875'/>
</g>
<g transform='matrix(0.996264 0 0 0.996264 106.473 103.921)'>
<path d='M 5.25094 95.2509L 95.2509 95.2509L 95.2509 5.25094L 5.25094 5.25094L 5.25094 95.2509Z' fill='none' stroke='#000000' stroke-linecap='round' stroke-linejoin='round' stroke-miterlimit='10.0375' stroke-width='0.501875'/>
</g>
<g transform='matrix(0.996264 0 0 0.996264 106.473 103.921)'>
<path d='M 0.250937 100.251L 100.251 100.251L 100.251 0.250937L 0.250937 0.250937L 0.250937 100.251Z' fill='none' stroke='#000000' stroke-linecap='round' stroke-linejoin='round' stroke-miterlimit='10.0375' stroke-width='0.501875'/>
</g>
<g transform='matrix(0.996264 0 0 0.996264 106.473 103.921)'>
<path d='M 145.251 55.2509L 155.251 55.2509L 155.251 45.2509L 145.251 45.2509L 145.251 55.2509Z' fill='none' stroke='#000000' stroke-linecap='round' stroke-linejoin='round' stroke-miterlimit='10.0375' stroke-width='0.501875'/>
</g>
<g transform='matrix(0.996264 0 0 0.996264 106.473 103.921)'>
<path d='M 140.251 60.2509L 160.251 60.2509L 160.251 40.2509L 140.251 40.2509L 140.251 60.2509Z' fill='none' stroke='#000000' stroke-linecap='round' stroke-linejoin='round' stroke-miterlimit='10.0375' stroke-width='0.501875'/>
</g>
<g transform='matrix(0.996264 0 0 0.996264 106.473 103.921)'>
<path d='M 135.251 65.2509L 165.251 65.2509L 165.251 35.2509L 135.251 35.2509L 135.251 65.2509Z' fill='none' stroke='#000000' stroke-linecap='round' stroke-linejoin='round' stroke-miterlimit='10.0375' stroke-width='0.501875'/>
</g>
<g transform='matrix(0.996264 0 0 0.996264 106.473 103.921)'>
<path d='M 130.251 70.2509L 170.251 70.2509L 170.251 30.2509L 130.251 30.2509L 130.251 70.2509Z' fill='none' stroke='#000000' stroke-linecap='round' stroke-linejoin='round' stroke-miterlimit='10.0375' stroke-width='0.501875'/>
</g>
<g transform='matrix(0.996264 0 0 0.996264 106.473 103.921)'>
<path d='M 125.251 75.2509L 175.251 75.2509L 175.251 25.2509L 125.251 25.2509L 125.251 75.2509Z' fill='none' stroke='#000000' stroke-linecap='round' stroke-linejoin='round' stroke-miterlimit='10.0375' stroke-width='0.501875'/>
</g>
<g transform='matrix(0.996264 0 0 0.996264 106.473 103.921)'>
<path d='M 120.251 80.2509L 180.251 80.2509L 180.251 20.2509L 120.251 20.2509L 120.251 80.2509Z' fill='none' stroke='#000000' stroke-linecap='round' stroke-linejoin='round' stroke-miterlimit='10.0375' stroke-width='0.501875'/>
</g>
<g transform='matrix(0.996264 0 0 0.996264 106.473 103.921)'>
<path d='M 115.251 85.2509L 185.251 85.2509L 185.251 15.2509L 115.251 15.2509L 115.251 85.2509Z' fill='none' stroke='#000000' stroke-linecap='round' stroke-linejoin='round' stroke-miterlimit='10.0375' stroke-width='0.501875'/>
</g>
<g transform='matrix(0.996264 0 0 0.996264 106.473 103.921)'>
<path d='M 110.251 90.2509L 190.251 90.2509L 190.251 10.2509L 110.251 10.2509L 110.251 90.2509Z' fill='none' stroke='#000000' stroke-linecap='round' stroke-linejoin='round' stroke-miterlimit='10.0375' stroke-width='0.501875'/>
</g>
<g transform='matrix(0.996264 0 0 0.996264 106.473 103.921)'>
<path d='M 105.251 95.2509L 195.251 95.2509L 195.251 5.25094L 105.251 5.25094L 105.251 95.2509Z' fill='none' stroke='#000000' stroke-linecap='round' stroke-linejoin='round' stroke-miterlimit='10.0375' stroke-width='0.501875'/>
</g>
<g transform='matrix(0.996264 0 0 0.996264 106.473 103.921)'>
<path d='M 235.251 55.2509L 245.251 55.2509L 245.251 45.2509L 235.251 45.2509L 235.251 55.2509Z' fill='none' stroke='#000000' stroke-linecap='round' stroke-linejoin='round' stroke-miterlimit='10.0375' stroke-width='0.501875'/>
</g>
<g transform='matrix(0.996264 0 0 0.996264 106.473 103.921)'>
<path d='M 230.251 60.2509L 250.251 60.2509L 250.251 40.2509L 230.251 40.2509L 230.251 60.2509Z' fill='none' stroke='#000000' stroke-linecap='round' stroke-linejoin='round' stroke-miterlimit='10.0375' stroke-width='0.501875'/>
</g>
<g transform='matrix(0.996264 0 0 0.996264 106.473 103.921)'>
<path d='M 225.251 65.2509L 255.251 65.2509L 255.251 35.2509L 225.251 35.2509L 225.251 65.2509Z' fill='none' stroke='#000000' stroke-linecap='round' stroke-linejoin='round' stroke-miterlimit='10.0375' stroke-width='0.501875'/>
</g>
<g transform='matrix(0.996264 0 0 0.996264 106.473 103.921)'>
<path d='M 220.251 70.2509L 260.251 70.2509L 260.251 30.2509L 220.251 30.2509L 220.251 70.2509Z' fill='none' stroke='#000000' stroke-linecap='round' stroke-linejoin='round' stroke-miterlimit='10.0375' stroke-width='0.501875'/>
</g>
<g transform='matrix(0.996264 0 0 0.996264 106.473 103.921)'>
<path d='M 215.251 75.2509L 265.251 75.2509L 265.251 25.2509L 215.251 25.2509L 215.251 75.2509Z' fill='none' stroke='#000000' stroke-linecap='round' stroke-linejoin='round' stroke-miterlimit='10.0375' stroke-width='0.501875'/>
</g>
<g transform='matrix(0.996264 0 0 0.996264 106.473 103.921)'>
<path d='M 210.251 80.2509L 270.251 80.2509L 270.251 20.2509L 210.251 20.2509L 210.251 80.2509Z' fill='none' stroke='#000000' stroke-linecap='round' stroke-linejoin='round' stroke-miterlimit='10.0375' stroke-width='0.501875'/>
</g>
<g transform='matrix(0.996264 0 0 0.996264 106.473 103.921)'>
<path d='M 205.251 85.2509L 275.251 85.2509L 275.251 15.2509L 205.251 15.2509L 205.251 85.2509Z' fill='none' stroke='#000000' stroke-linecap='round' stroke-linejoin='round' stroke-miterlimit='10.0375' stroke-width='0.501875'/>
</g>
<g transform='matrix(0.996264 0 0 0.996264 106.473 103.921)'>
<path d='M 200.251 90.2509L 280.251 90.2509L 280.251 10.2509L 200.251 10.2509L 200.251 90.2509Z' fill='none' stroke='#000000' stroke-linecap='round' stroke-linejoin='round' stroke-miterlimit='10.0375' stroke-width='0.501875'/>
</g>
<g transform='matrix(0.996264 0 0 0.996264 106.473 103.921)'>
<path d='M 315.251 55.2509L 325.251 55.2509L 325.251 45.2509L 315.251 45.2509L 315.251 55.2509Z' fill='none' stroke='#000000' stroke-linecap='round' stroke-linejoin='round' stroke-miterlimit='10.0375' stroke-width='0.501875'/>
</g>
<g transform='matrix(0.996264 0 0 0.996264 106.473 103.921)'>
<path d='M 310.251 60.2509L 330.251 60.2509L 330.251 40.2509L 310.251 40.2509L 310.251 60.2509Z' fill='none' stroke='#000000' stroke-linecap='round' stroke-linejoin='round' stroke-miterlimit='10.0375' stroke-width='0.501875'/>
</g>
<g transform='matrix(0.996264 0 0 0.996264 106.473 103.921)'>
<path d='M 305.251 65.2509L 335.251 65.2509L 335.251 35.2509L 305.251 35.2509L 305.251 65.2509Z' fill='none' stroke='#000000' stroke-linecap='round' stroke-linejoin='round' stroke-miterlimit='10.0375' stroke-width='0.501875'/>
</g>
<g transform='matrix(0.996264 0 0 0.996264 106.473 103.921)'>
<path d='M 300.251 70.2509L 340.251 70.2509L 340.251 30.2509L 300.251 30.2509L 300.251 70.2509Z' fill='none' stroke='#000000' stroke-linecap='round' stroke-linejoin='round' stroke-miterlimit='10.0375' stroke-width='0.501875'/>
</g>
<g transform='matrix(0.996264 0 0 0.996264 106.473 103.921)'>
<path d='M 295.251 75.2509L 345.251 75.2509L 345.251 25.2509L 295.251 25.2509L 295.251 75.2509Z' fill='none' stroke='#000000' stroke-linecap='round' stroke-linejoin='round' stroke-miterlimit='10.0375' stroke-width='0.501875'/>
</g>
<g transform='matrix(0.996264 0 0 0.996264 106.473 103.921)'>
<path d='M 290.251 80.2509L 350.251 80.2509L 350.251 20.2509L 290.251 20.2509L 290.251 80.2509Z' fill='none' stroke='#000000' stroke-linecap='round' stroke-linejoin='round' stroke-miterlimit='10.0375' stroke-width='0.501875'/>
</g>
<g transform='matrix(0.996264 0 0 0.996264 106.473 103.921)'>
<path d='M 285.251 85.2509L 355.251 85.2509L 355.251 15.2509L 285.251 15.2509L 285.251 85.2509Z' fill='none' stroke='#000000' stroke-linecap='round' stroke-linejoin='round' stroke-miterlimit='10.0375' stroke-width='0.501875'/>
</g>
<g transform='matrix(0.996264 0 0 0.996264 106.473 103.921)'>
<path d='M 385.251 55.2509L 395.251 55.2509L 395.251 45.2509L 385.251 45.2509L 385.251 55.2509Z' fill='none' stroke='#000000' stroke-linecap='round' stroke-linejoin='round' stroke-miterlimit='10.0375' stroke-width='0.501875'/>
</g>
<g transform='matrix(0.996264 0 0 0.996264 106.473 103.921)'>
<path d='M 380.251 60.2509L 400.251 60.2509L 400.251 40.2509L 380.251 40.2509L 380.251 60.2509Z' fill='none' stroke='#000000' stroke-linecap='round' stroke-linejoin='round' stroke-miterlimit='10.0375' stroke-width='0.501875'/>
</g>
<g transform='matrix(0.996264 0 0 0.996264 106.473 103.921)'>
<path d='M 375.251 65.2509L 405.251 65.2509L 405.251 35.2509L 375.251 35.2509L 375.251 65.2509Z' fill='none' stroke='#000000' stroke-linecap='round' stroke-linejoin='round' stroke-miterlimit='10.0375' stroke-width='0.501875'/>
</g>
<g transform='matrix(0.996264 0 0 0.996264 106.473 103.921)'>
<path d='M 370.251 70.2509L 410.251 70.2509L 410.251 30.2509L 370.251 30.2509L 370.251 70.2509Z' fill='none' stroke='#000000' stroke-linecap='round' stroke-linejoin='round' stroke-miterlimit='10.0375' stroke-width='0.501875'/>
</g>
<g transform='matrix(0.996264 0 0 0.996264 106.473 103.921)'>
<path d='M 365.251 75.2509L 415.251 75.2509L 415.251 25.2509L 365.251 25.2509L 365.251 75.2509Z' fill='none' stroke='#000000' stroke-linecap='round' stroke-linejoin='round' stroke-miterlimit='10.0375' stroke-width='0.501875'/>
</g>
<g transform='matrix(0.996264 0 0 0.996264 106.473 103.921)'>
<path d='M 360.251 80.2509L 420.251 80.2509L 420.251 20.2509L 360.251 20.2509L 360.251 80.2509Z' fill='none' stroke='#000000' stroke-linecap='round' stroke-linejoin='round' stroke-miterlimit='10.0375' stroke-width='0.501875'/>
</g>
<g transform='matrix(0.996264 0 0 0.996264 106.473 103.921)'>
<path d='M 445.251 55.2509L 455.251 55.2509L 455.251 45.2509L 445.251 45.2509L 445.251 55.2509Z' fill='none' stroke='#000000' stroke-linecap='round' stroke-linejoin='round' stroke-miterlimit='10.0375' stroke-width='0.501875'/>
</g>
<g transform='matrix(0.996264 0 0 0.996264 106.473 103.921)'>
<path d='M 440.251 60.2509L 460.251 60.2509L 460.251 40.2509L 440.251 40.2509L 440.251 60.2509Z' fill='none' stroke='#000000' stroke-linecap='round' stroke-linejoin='round' stroke-miterlimit='10.0375' stroke-width='0.501875'/>
</g>
<g transform='matrix(0.996264 0 0 0.996264 106.473 103.921)'>
<path d='M 435.251 65.2509L 465.251 65.2509L 465.251 35.2509L 435.251 35.2509L 435.251 65.2509Z' fill='none' stroke='#000000' stroke-linecap='round' stroke-linejoin='round' stroke-miterlimit='10.0375' stroke-width='0.501875'/>
</g>
<g transform='matrix(0.996264 0 0 0.996264 106.473 103.921)'>
<path d='M 430.251 70.2509L 470.251 70.2509L 470.251 30.2509L 430.251 30.2509L 430.251 70.2509Z' fill='none' stroke='#000000' stroke-linecap='round' stroke-linejoin='round' stroke-miterlimit='10.0375' stroke-width='0.501875'/>
</g>
<g transform='matrix(0.996264 0 0 0.996264 106.473 103.921)'>
<path d='M 425.251 75.2509L 475.251 75.2509L 475.251 25.2509L 425.251 25.2509L 425.251 75.2509Z' fill='none' stroke='#000000' stroke-linecap='round' stroke-linejoin='round' stroke-miterlimit='10.0375' stroke-width='0.501875'/>
</g>
<g transform='matrix(0.996264 0 0 0.996264 106.473 103.921)'>
<path d='M 495.251 55.2509L 505.251 55.2509L 505.251 45.2509L 495.251 45.2509L 495.251 55.2509Z' fill='none' stroke='#000000' stroke-linecap='round' stroke-linejoin='round' stroke-miterlimit='10.0375' stroke-width='0.501875'/>
</g>
<g transform='matrix(0.996264 0 0 0.996264 106.473 103.921)'>
<path d='M 490.251 60.2509L 510.251 60.2509L 510.251 40.2509L 490.251 40.2509L 490.251 60.2509Z' fill='none' stroke='#000000' stroke-linecap='round' stroke-linejoin='round' stroke-miterlimit='10.0375' stroke-width='0.501875'/>
</g>
<g transform='matrix(0.996264 0 0 0.996264 106.473 103.921)'>
<path d='M 485.251 65.2509L 515.251 65.2509L 515.251 35.2509L 485.251 35.2509L 485.251 65.2509Z' fill='none' stroke='#000000' stroke-linecap='round' stroke-linejoin='round' stroke-miterlimit='10.0375' stroke-width='0.501875'/>
</g>
<g transform='matrix(0.996264 0 0 0.996264 106.473 103.921)'>
<path d='M 480.251 70.2509L 520.251 70.2509L 520.251 30.2509L 480.251 30.2509L 480.251 70.2509Z' fill='none' stroke='#000000' stroke-linecap='round' stroke-linejoin='round' stroke-miterlimit='10.0375' stroke-width='0.501875'/>
</g>
<g transform='matrix(0.996264 0 0 0.996264 106.473 103.921)'>
<path d='M 535.251 55.2509L 545.251 55.2509L 545.251 45.2509L 535.251 45.2509L 535.251 55.2509Z' fill='none' stroke='#000000' stroke-linecap='round' stroke-linejoin='round' stroke-miterlimit='10.0375' stroke-width='0.501875'/>
</g>
<g transform='matrix(0.996264 0 0 0.996264 106.473 103.921)'>
<path d='M 530.251 60.2509L 550.251 60.2509L 550.251 40.2509L 530.251 40.2509L 530.251 60.2509Z' fill='none' stroke='#000000' stroke-linecap='round' stroke-linejoin='round' stroke-miterlimit='10.0375' stroke-width='0.501875'/>
</g>
<g transform='matrix(0.996264 0 0 0.996264 106.473 103.921)'>
<path d='M 525.251 65.2509L 555.251 65.2509L 555.251 35.2509L 525.251 35.2509L 525.251 65.2509Z' fill='none' stroke='#000000' stroke-linecap='round' stroke-linejoin='round' stroke-miterlimit='10.0375' stroke-width='0.501875'/>
</g>
<g transform='matrix(0.996264 0 0 0.996264 106.473 103.921)'>
<path d='M 565.251 55.2509L 575.251 55.2509L 575.251 45.2509L 565.251 45.2509L 565.251 55.2509Z' fill='none' stroke='#000000' stroke-linecap='round' stroke-linejoin='round' stroke-miterlimit='10.0375' stroke-width='0.501875'/>
</g>
<g transform='matrix(0.996264 0 0 0.996264 106.473 103.921)'>
<path d='M 560.251 60.2509L 580.251 60.2509L 580.251 40.2509L 560.251 40.2509L 560.251 60.2509Z' fill='none' stroke='#000000' stroke-linecap='round' stroke-linejoin='round' stroke-miterlimit='10.0375' stroke-width='0.501875'/>
</g>
<g transform='matrix(0.996264 0 0 0.996264 106.473 103.921)'>
<path d='M 585.251 55.2509L 595.251 55.2509L 595.251 45.2509L 585.251 45.2509L 585.251 55.2509Z' fill='none' stroke='#000000' stroke-linecap='round' stroke-linejoin='round' stroke-miterlimit='10.0375' stroke-width='0.501875'/>
</g>
</g>
</svg>