<?xml version='1.0' encoding='UTF-8'?>
<!-- This file was generated by dvisvgm 2.11.1 -->
<svg version='1.1' xmlns='http://www.w3.org/2000/svg' xmlns:xlink='http://www.w3.org/1999/xlink' width='255.618pt' height='170.578pt' viewBox='141.699 139.148 255.618 170.578'>
<defs>
<path id='g0-48' d='M2.11208-3.777833C2.15193-3.881445 2.183811-3.937235 2.183811-4.016936C2.183811-4.27995 1.944707-4.455293 1.721544-4.455293C1.40274-4.455293 1.315068-4.176339 1.283188-4.064757L.270984-.629639C.239103-.533998 .239103-.510087 .239103-.502117C.239103-.430386 .286924-.414446 .366625-.390535C.510087-.326775 .526027-.326775 .541968-.326775C.565878-.326775 .613699-.326775 .669489-.462267L2.11208-3.777833Z'/>
<path id='g1-118' d='M5.463512-4.471233C5.463512-5.224408 5.080946-5.272229 4.985305-5.272229C4.698381-5.272229 4.435367-4.985305 4.435367-4.746202C4.435367-4.60274 4.519054-4.519054 4.566874-4.471233C4.686426-4.363636 4.99726-4.040847 4.99726-3.419178C4.99726-2.917061 4.27995-.119552 2.84533-.119552C2.116065-.119552 1.972603-.729265 1.972603-1.171606C1.972603-1.769365 2.247572-2.606227 2.570361-3.466999C2.761644-3.957161 2.809465-4.076712 2.809465-4.315816C2.809465-4.817933 2.450809-5.272229 1.865006-5.272229C.765131-5.272229 .32279-3.53873 .32279-3.443088C.32279-3.395268 .37061-3.335492 .454296-3.335492C.561893-3.335492 .573848-3.383313 .621669-3.550685C.908593-4.578829 1.374844-5.033126 1.829141-5.033126C1.936737-5.033126 2.139975-5.033126 2.139975-4.638605C2.139975-4.327771 2.008468-3.981071 1.829141-3.526775C1.255293-1.996513 1.255293-1.625903 1.255293-1.338979C1.255293-1.075965 1.291158-.585803 1.661768-.251059C2.092154 .119552 2.689913 .119552 2.797509 .119552C4.782067 .119552 5.463512-3.789788 5.463512-4.471233Z'/>
</defs>
<g id='page1'>
<g transform='matrix(0.996264 0 0 0.996264 141.699 139.148)'>
<path d='M 87.6092 85.6092C 87.6092 84.5046 86.7138 83.6092 85.6092 83.6092C 84.5046 83.6092 83.6092 84.5046 83.6092 85.6092C 83.6092 86.7138 84.5046 87.6092 85.6092 87.6092C 86.7138 87.6092 87.6092 86.7138 87.6092 85.6092Z' fill='#000000'/>
</g>
<g transform='matrix(0.996264 0 0 0.996264 141.699 139.148)'>
<path d='M 172.967 57.1564C 172.967 56.0519 172.072 55.1564 170.967 55.1564C 169.863 55.1564 168.967 56.0519 168.967 57.1564C 168.967 58.261 169.863 59.1564 170.967 59.1564C 172.072 59.1564 172.967 58.261 172.967 57.1564Z' fill='#000000'/>
</g>
<g transform='matrix(0.996264 0 0 0.996264 141.699 139.148)'>
<path d='M 130.597 85.6092C 130.597 60.7632 110.455 40.6214 85.6092 40.6214C 60.7632 40.6214 40.6214 60.7632 40.6214 85.6092C 40.6214 110.455 60.7632 130.597 85.6092 130.597C 110.455 130.597 130.597 110.455 130.597 85.6092Z' fill='none' stroke='#000000' stroke-linecap='round' stroke-linejoin='round' stroke-miterlimit='10.0375' stroke-width='0.501875'/>
</g>
<g transform='matrix(0.996264 0 0 0.996264 141.699 139.148)'>
<path d='M 215.955 57.1564C 215.955 32.3104 195.814 12.1687 170.967 12.1687C 146.121 12.1687 125.98 32.3104 125.98 57.1564C 125.98 82.0025 146.121 102.144 170.967 102.144C 195.814 102.144 215.955 82.0025 215.955 57.1564Z' fill='none' stroke='#000000' stroke-linecap='round' stroke-linejoin='round' stroke-miterlimit='10.0375' stroke-width='0.501875'/>
</g>
<g transform='matrix(0.996264 0 0 0.996264 141.699 139.148)'>
<path d='M 0.250937 114.062L 256.326 28.7037' fill='none' stroke='#000000' stroke-dasharray='4.02875,4.02875' stroke-linecap='round' stroke-linejoin='round' stroke-miterlimit='10.0375' stroke-width='0.501875'/>
</g>
<g transform='matrix(0.996264 0 0 0.996264 141.699 139.148)'>
<path d='M 114.062 170.967L 57.1564 0.250937' fill='none' stroke='#000000' stroke-dasharray='3.99891,3.99891' stroke-linecap='round' stroke-linejoin='round' stroke-miterlimit='10.0375' stroke-width='0.501875'/>
</g>
<g transform='matrix(0.996264 0 0 0.996264 141.699 139.148)'>
<path d='M 135.781 110.695L 85.6092 85.6092' fill='none' stroke='#000000' stroke-linecap='round' stroke-linejoin='round' stroke-miterlimit='10.0375' stroke-width='0.501875'/>
</g>
<g transform='matrix(0.996264 0 0 0.996264 141.699 139.148)'>
<path d='M 142.515 114.062L 136.683 108.891L 134.879 112.499L 142.515 114.062Z' fill='#000000'/>
</g>
<g transform='matrix(0.996264 0 0 0.996264 141.699 139.148)'>
<path d='M 142.515 114.062L 136.683 108.891L 134.879 112.499L 142.515 114.062Z' fill='none' stroke='#000000' stroke-linecap='round' stroke-linejoin='round' stroke-miterlimit='10.0375' stroke-width='0.501875'/>
</g>
<use x='255.420363' y='235.34232' xlink:href='#g1-118'/>
<g transform='matrix(0.996264 0 0 0.996264 141.699 139.148)'>
<path d='M 60.5231 135.781L 85.6092 85.6092' fill='none' stroke='#000000' stroke-linecap='round' stroke-linejoin='round' stroke-miterlimit='10.0375' stroke-width='0.501875'/>
</g>
<g transform='matrix(0.996264 0 0 0.996264 141.699 139.148)'>
<path d='M 57.1564 142.515L 62.3273 136.683L 58.7189 134.879L 57.1564 142.515Z' fill='#000000'/>
</g>
<g transform='matrix(0.996264 0 0 0.996264 141.699 139.148)'>
<path d='M 57.1564 142.515L 62.3273 136.683L 58.7189 134.879L 57.1564 142.515Z' fill='none' stroke='#000000' stroke-linecap='round' stroke-linejoin='round' stroke-miterlimit='10.0375' stroke-width='0.501875'/>
</g>
<use x='216.026692' y='260.902125' xlink:href='#g1-118'/>
<use x='222.114911' y='256.563689' xlink:href='#g0-48'/>
</g>
</svg>